{
  "APP_SERVER": "192.168.0.6",
  "PORT": "8080",
  "APP_URL" : "http://localhost:9025/authorization-api/",
  "LOGIN_API": "/ServiceLayer/portal/login",
  "ALL_REQUESTS_API": "/ServiceLayer/portal/requests",
  "EMPLOYEE_REQUESTS_API": "/ServiceLayer/portal/emp/{empId}/requests"
}

