{
  "ID_MERCHANT": "500084",
  "LOGIN_MERCHANT": "administra@doctorintegral.com",
  "ID_MERCHANT_TO_MIGRATE": "500083",
  "LOGIN_MERCHANT_TO_MIGRATE_BLOCKED": "alejandro.galvis@colombianos.in",
  "LOGIN_MERCHANT_TO_MIGRATE_INVALID": "colombianos.in",
  "LOGIN_MERCHANT_TO_MIGRATE": "eduardopc91@hotmail.com"
}

